%YAML 1.1
%TAG !u! tag:unity3d.com,2011:
--- !u!1 &1222731060140294
GameObject:
  m_ObjectHideFlags: 0
  m_CorrespondingSourceObject: {fileID: 0}
  m_PrefabInstance: {fileID: 0}
  m_PrefabAsset: {fileID: 0}
  serializedVersion: 6
  m_Component:
  - component: {fileID: 4849070527006548}
  - component: {fileID: 33418271920073916}
  - component: {fileID: 23524285103523870}
  - component: {fileID: 64962537987607460}
  m_Layer: 0
  m_Name: Gas_station_A
  m_TagString: Untagged
  m_Icon: {fileID: 0}
  m_NavMeshLayer: 0
  m_StaticEditorFlags: 0
  m_IsActive: 1
--- !u!4 &4849070527006548
Transform:
  m_ObjectHideFlags: 0
  m_CorrespondingSourceObject: {fileID: 0}
  m_PrefabInstance: {fileID: 0}
  m_PrefabAsset: {fileID: 0}
  m_GameObject: {fileID: 1222731060140294}
  m_LocalRotation: {x: -0.7071068, y: -0, z: -0, w: 0.7071067}
  m_LocalPosition: {x: 0, y: -0.005, z: 0}
  m_LocalScale: {x: 100, y: 99.99997, z: 99.99997}
  m_Children: []
  m_Father: {fileID: 4888449184639514}
  m_RootOrder: 0
  m_LocalEulerAnglesHint: {x: 0, y: 0, z: 0}
--- !u!33 &33418271920073916
MeshFilter:
  m_ObjectHideFlags: 0
  m_CorrespondingSourceObject: {fileID: 0}
  m_PrefabInstance: {fileID: 0}
  m_PrefabAsset: {fileID: 0}
  m_GameObject: {fileID: 1222731060140294}
  m_Mesh: {fileID: 4300000, guid: 5bb97b332176ae0499af0f666e4f5828, type: 3}
--- !u!23 &23524285103523870
MeshRenderer:
  m_ObjectHideFlags: 0
  m_CorrespondingSourceObject: {fileID: 0}
  m_PrefabInstance: {fileID: 0}
  m_PrefabAsset: {fileID: 0}
  m_GameObject: {fileID: 1222731060140294}
  m_Enabled: 1
  m_CastShadows: 1
  m_ReceiveShadows: 1
  m_DynamicOccludee: 1
  m_StaticShadowCaster: 0
  m_MotionVectors: 1
  m_LightProbeUsage: 1
  m_ReflectionProbeUsage: 1
  m_RayTracingMode: 2
  m_RayTraceProcedural: 0
  m_RenderingLayerMask: 1
  m_RendererPriority: 0
  m_Materials:
  - {fileID: 2100000, guid: ee406a0d2cd53e046b9c7bcfdcc189a7, type: 2}
  - {fileID: 2100000, guid: 3c98c150d6196ef419f666d71cf7d13f, type: 2}
  - {fileID: 2100000, guid: c4d3a0c81c5ffb34889379e1a1cf85bb, type: 2}
  - {fileID: 2100000, guid: c4d3a0c81c5ffb34889379e1a1cf85bb, type: 2}
  - {fileID: 2100000, guid: 09bb7389d12b7fe4cb01b4d2afb6b0a7, type: 2}
  - {fileID: 2100000, guid: 5188c7492ef51d143a7128aa9700788a, type: 2}
  - {fileID: 2100000, guid: 26df91506bf83b343b8083c5322323ae, type: 2}
  - {fileID: 2100000, guid: 3c98c150d6196ef419f666d71cf7d13f, type: 2}
  - {fileID: 2100000, guid: 3c98c150d6196ef419f666d71cf7d13f, type: 2}
  - {fileID: 2100000, guid: 1af4b0d855a4f694baba51a55f5c6cc9, type: 2}
  - {fileID: 2100000, guid: 5188c7492ef51d143a7128aa9700788a, type: 2}
  - {fileID: 2100000, guid: e495abf6588a1b944a3620fd1fee2b07, type: 2}
  - {fileID: 2100000, guid: 1f3aed826d0deb142ae61d35be7f4ff8, type: 2}
  - {fileID: 2100000, guid: 2100b85841ac32940a50ec36409b49c0, type: 2}
  - {fileID: 2100000, guid: 2100b85841ac32940a50ec36409b49c0, type: 2}
  - {fileID: 2100000, guid: 1af4b0d855a4f694baba51a55f5c6cc9, type: 2}
  - {fileID: 2100000, guid: c4d3a0c81c5ffb34889379e1a1cf85bb, type: 2}
  m_StaticBatchInfo:
    firstSubMesh: 0
    subMeshCount: 0
  m_StaticBatchRoot: {fileID: 0}
  m_ProbeAnchor: {fileID: 0}
  m_LightProbeVolumeOverride: {fileID: 0}
  m_ScaleInLightmap: 1
  m_ReceiveGI: 1
  m_PreserveUVs: 0
  m_IgnoreNormalsForChartDetection: 0
  m_ImportantGI: 0
  m_StitchLightmapSeams: 0
  m_SelectedEditorRenderState: 3
  m_MinimumChartSize: 4
  m_AutoUVMaxDistance: 0.5
  m_AutoUVMaxAngle: 89
  m_LightmapParameters: {fileID: 0}
  m_SortingLayerID: 0
  m_SortingLayer: 0
  m_SortingOrder: 0
  m_AdditionalVertexStreams: {fileID: 0}
--- !u!64 &64962537987607460
MeshCollider:
  m_ObjectHideFlags: 0
  m_CorrespondingSourceObject: {fileID: 0}
  m_PrefabInstance: {fileID: 0}
  m_PrefabAsset: {fileID: 0}
  m_GameObject: {fileID: 1222731060140294}
  m_Material: {fileID: 0}
  m_IsTrigger: 0
  m_Enabled: 1
  serializedVersion: 4
  m_Convex: 0
  m_CookingOptions: 30
  m_Mesh: {fileID: 4300000, guid: 5bb97b332176ae0499af0f666e4f5828, type: 3}
--- !u!1 &1505934643987248
GameObject:
  m_ObjectHideFlags: 0
  m_CorrespondingSourceObject: {fileID: 0}
  m_PrefabInstance: {fileID: 0}
  m_PrefabAsset: {fileID: 0}
  serializedVersion: 6
  m_Component:
  - component: {fileID: 4888449184639514}
  - component: {fileID: 7205681394253504867}
  m_Layer: 0
  m_Name: Gas_station_A_PREFAB
  m_TagString: Untagged
  m_Icon: {fileID: 0}
  m_NavMeshLayer: 0
  m_StaticEditorFlags: 0
  m_IsActive: 1
--- !u!4 &4888449184639514
Transform:
  m_ObjectHideFlags: 0
  m_CorrespondingSourceObject: {fileID: 0}
  m_PrefabInstance: {fileID: 0}
  m_PrefabAsset: {fileID: 0}
  m_GameObject: {fileID: 1505934643987248}
  m_LocalRotation: {x: 0, y: 0, z: 0, w: 1}
  m_LocalPosition: {x: 0, y: 0, z: 0}
  m_LocalScale: {x: 7, y: 7, z: 7}
  m_Children:
  - {fileID: 4849070527006548}
  m_Father: {fileID: 0}
  m_RootOrder: 0
  m_LocalEulerAnglesHint: {x: 0, y: 0, z: 0}
--- !u!64 &7205681394253504867
MeshCollider:
  m_ObjectHideFlags: 0
  m_CorrespondingSourceObject: {fileID: 0}
  m_PrefabInstance: {fileID: 0}
  m_PrefabAsset: {fileID: 0}
  m_GameObject: {fileID: 1505934643987248}
  m_Material: {fileID: 13400000, guid: c2f8c4406746f8346b7a7ea6bb9b5df3, type: 2}
  m_IsTrigger: 0
  m_Enabled: 1
  serializedVersion: 4
  m_Convex: 0
  m_CookingOptions: 30
  m_Mesh: {fileID: 0}
